Changes in mutational patterns over time
…
Joining, by = "id"

pd <- pd %>% mutate(date_bin = ymd(date_bin))

pd %>% 
  group_by(mygroup, date_bin) %>%
  summarise(mean = mean(tstv_ratio), n=n())

`summarise()` regrouping output by 'mygroup' (override with `.groups` argument)

# A tibble: 46 x 4
# Groups:   mygroup [5]
   mygroup date_bin    mean     n
   <chr>   <date>     <dbl> <int>
 1 B.1     2020-03-01 0.694     3
 2 B.1     2020-04-01 1.19     10
 3 B.1     2020-05-01 0.983     9
 4 B.1     2020-06-01 1.48      6
 5 B.1     2020-07-01 1.71      8
 6 B.1     2020-08-01 2.21      3
 7 B.1     2020-09-01 1.48      7
 8 B.1     2020-10-01 2.72     14
 9 B.1     2020-11-01 3.04     11
10 B.1     2020-12-01 2.75      9
# … with 36 more rows

pd %>% 
  group_by(mygroup, date_bin) %>%
  count(tstv_ratio)

# A tibble: 1,113 x 4
# Groups:   mygroup, date_bin [46]
   mygroup date_bin   tstv_ratio     n
   <chr>   <date>          <dbl> <int>
 1 B.1     2020-03-01      0.25      1
 2 B.1     2020-03-01      0.833     1
 3 B.1     2020-03-01      1         1
 4 B.1     2020-04-01      0.167     1
 5 B.1     2020-04-01      0.462     1
 6 B.1     2020-04-01      0.571     1
 7 B.1     2020-04-01      0.8       1
 8 B.1     2020-04-01      1         2
 9 B.1     2020-04-01      1.1       1
10 B.1     2020-04-01      1.5       1
# … with 1,103 more rows
…
