Extracting windows based counts of mutations from gisaid data freeze parsed by the snpEff pipeline
…
# brief glimpse

mutations_annotated[, c(1:6,50:58)]

# A tibble: 6,808,767 x 15
   id    CHROM position ref_base variant_base gene  count_N count_S date_sub
   <chr> <chr>    <dbl> <chr>    <chr>        <chr>   <dbl>   <dbl> <chr>   
 1 1000… NC_0…      913 C        T            nsp2       20      10 2021    
 2 1000… NC_0…      913 C        T            nsp2       20      10 2021    
 3 1000… NC_0…     1223 C        T            nsp2       20      10 2021    
 4 1000… NC_0…     1223 C        T            nsp2       20      10 2021    
 5 1000… NC_0…     3037 C        T            nsp3       20      10 2021    
 6 1000… NC_0…     3037 C        T            nsp3       20      10 2021    
 7 1000… NC_0…     3267 C        T            nsp3       20      10 2021    
 8 1000… NC_0…     3267 C        T            nsp3       20      10 2021    
 9 1000… NC_0…     5388 C        A            nsp3       20      10 2021    
10 1000… NC_0…     5388 C        A            nsp3       20      10 2021    
# … with 6,808,757 more rows, and 6 more variables: start_pos <dbl>,
#   end_pos <dbl>, gene_length <dbl>, genome_bin <dbl>, window_start <dbl>,
#   gene_bin <dbl>
…
